Registered students for HBO 2014 - 2018
…
2.3 Data - TIDY

data_tidy <- data %>%
  gather(`2014 Man`:`2018 Vrouw`,
         key = "year_gender", value = "counts") %>%
  separate(year_gender, into = c("year", "gender"),
           remove = FALSE)
data_tidy[, c("year", "gender", "counts")]

## # A tibble: 31,300 x 3
##    year  gender counts
##    <chr> <chr>   <dbl>
##  1 2014  Man         5
##  2 2014  Man       114
##  3 2014  Man        30
##  4 2014  Man         0
##  5 2014  Man         1
##  6 2014  Man        36
##  7 2014  Man         0
##  8 2014  Man        28
##  9 2014  Man        47
## 10 2014  Man        24
## # ... with 31,290 more rows
…
